<?xml version="1.0" encoding="utf-8"?>
<!-- Generator: Adobe Illustrator 25.0.0, SVG Export Plug-In . SVG Version: 6.00 Build 0)  -->
<svg version="1.1" id="Layer_1" xmlns="http://www.w3.org/2000/svg" xmlns:xlink="http://www.w3.org/1999/xlink" x="0px" y="0px"
	 viewBox="0 0 70 70" style="enable-background:new 0 0 70 70;" xml:space="preserve">
<style type="text/css">
	.st0{fill:#00567A;}
	.st1{fill:#FFFFFF;}
</style>
<path class="st0" d="M35.1,0C22.2,0,11.8,10.4,11.8,23.3c0,2.8,0.3,5.7,1.5,8.2l16.6,35.3c0.9,2,3,3.2,5.2,3.2
	c2.2,0,4.3-1.2,5.2-3.2L57,31.5c1.2-2.5,1.5-5.4,1.5-8.2C58.5,10.4,48,0,35.1,0z M35.1,35c-6.4,0-11.7-5.2-11.7-11.7
	s5.2-11.7,11.7-11.7c6.4,0,11.7,5.2,11.7,11.7S41.5,35,35.1,35z"/>
<circle class="st1" cx="35.1" cy="23.3" r="11.7"/>
</svg>
