<?xml version="1.0" encoding="utf-8"?>
<!-- Generator: Adobe Illustrator 25.0.0, SVG Export Plug-In . SVG Version: 6.00 Build 0)  -->
<svg version="1.1" id="Layer_1" xmlns="http://www.w3.org/2000/svg" xmlns:xlink="http://www.w3.org/1999/xlink" x="0px" y="0px"
	 viewBox="0 0 17.4 16.6" style="enable-background:new 0 0 17.4 16.6;" xml:space="preserve">
<style type="text/css">
	.st0{fill:#FFFFFF;}
</style>
<path class="st0" d="M8.7,16.6c0.4,0,0.7-0.2,1-0.4L17,8.9c0.3-0.3,0.4-0.6,0.4-1s-0.2-0.7-0.4-1L16.1,6c-0.3-0.3-0.6-0.4-1-0.4
	c-0.4,0-0.7,0.2-1,0.4l-3.3,3.3V1.4c0-0.8-0.6-1.4-1.4-1.4H8C7.2,0,6.6,0.6,6.6,1.4v7.9L3.3,6C3,5.7,2.6,5.6,2.3,5.6
	c-0.4,0-0.7,0.2-1,0.4L0.4,6.8C0.2,7.1,0,7.5,0,7.9s0.2,0.7,0.4,1l7.3,7.3C7.9,16.4,8.3,16.6,8.7,16.6z"/>
</svg>
